{
    "districts": [
        {
            "district": "RANGAREDDI",
            "products": [
                {
                    "productName": "Petrol",
                    "productPrice": "89.01",
                    "productCurrency": "INR",
                    "priceChange": "0.26",
                    "priceChangeSign": "+"
                },
                {
                    "productName": "Diesel",
                    "productPrice": "82.64",
                    "productCurrency": "INR",
                    "priceChange": "0.26",
                    "priceChangeSign": "+"
                }
            ]
        },
        {
            "district": "HYDERABAD",
            "products": [
                {
                    "productName": "Petrol",
                    "productPrice": "88.89",
                    "productCurrency": "INR",
                    "priceChange": "0.26",
                    "priceChangeSign": "+"
                },
                {
                    "productName": "Diesel",
                    "productPrice": "82.53",
                    "productCurrency": "INR",
                    "priceChange": "0.26",
                    "priceChangeSign": "+"
                }
            ]
        },
        {
            "district": "MEDCHAL MALKAJGIRI",
            "products": [
                {
                    "productName": "Petrol",
                    "productPrice": "88.86",
                    "productCurrency": "INR",
                    "priceChange": "0.26",
                    "priceChangeSign": "+"
                },
                {
                    "productName": "Diesel",
                    "productPrice": "82.50",
                    "productCurrency": "INR",
                    "priceChange": "0.26",
                    "priceChangeSign": "+"
                }
            ]
        },
        {
            "district": "SIDDIPET",
            "products": [
                {
                    "productName": "Petrol",
                    "productPrice": "89.14",
                    "productCurrency": "INR",
                    "priceChange": "0.26",
                    "priceChangeSign": "+"
                },
                {
                    "productName": "Diesel",
                    "productPrice": "82.77",
                    "productCurrency": "INR",
                    "priceChange": "0.26",
                    "priceChangeSign": "+"
                }
            ]
        },
        {
            "district": "MEDAK",
            "products": [
                {
                    "productName": "Petrol",
                    "productPrice": "89.42",
                    "productCurrency": "INR",
                    "priceChange": "0.26",
                    "priceChangeSign": "+"
                },
                {
                    "productName": "Diesel",
                    "productPrice": "83.03",
                    "productCurrency": "INR",
                    "priceChange": "0.26",
                    "priceChangeSign": "+"
                }
            ]
        },
        {
            "district": "SANGAREDDY",
            "products": [
                {
                    "productName": "Petrol",
                    "productPrice": "89.45",
                    "productCurrency": "INR",
                    "priceChange": "0.26",
                    "priceChangeSign": "+"
                },
                {
                    "productName": "Diesel",
                    "productPrice": "83.06",
                    "productCurrency": "INR",
                    "priceChange": "0.26",
                    "priceChangeSign": "+"
                }
            ]
        },
        {
            "district": "NAGARKURNOOL",
            "products": [
                {
                    "productName": "Petrol",
                    "productPrice": "89.92",
                    "productCurrency": "INR",
                    "priceChange": "0.26",
                    "priceChangeSign": "+"
                },
                {
                    "productName": "Diesel",
                    "productPrice": "83.50",
                    "productCurrency": "INR",
                    "priceChange": "0.26",
                    "priceChangeSign": "+"
                }
            ]
        },
        {
            "district": "MEHABUBNAGAR",
            "products": [
                {
                    "productName": "Petrol",
                    "productPrice": "89.79",
                    "productCurrency": "INR",
                    "priceChange": "0.26",
                    "priceChangeSign": "+"
                },
                {
                    "productName": "Diesel",
                    "productPrice": "83.37",
                    "productCurrency": "INR",
                    "priceChange": "0.27",
                    "priceChangeSign": "+"
                }
            ]
        },
        {
            "district": "NARAYANPET",
            "products": [
                {
                    "productName": "Petrol",
                    "productPrice": "90.36",
                    "productCurrency": "INR",
                    "priceChange": "0.26",
                    "priceChangeSign": "+"
                },
                {
                    "productName": "Diesel",
                    "productPrice": "83.90",
                    "productCurrency": "INR",
                    "priceChange": "0.27",
                    "priceChangeSign": "+"
                }
            ]
        },
        {
            "district": "JOGULAMBA GADWAL",
            "products": [
                {
                    "productName": "Petrol",
                    "productPrice": "90.66",
                    "productCurrency": "INR",
                    "priceChange": "0.25",
                    "priceChangeSign": "+"
                },
                {
                    "productName": "Diesel",
                    "productPrice": "84.19",
                    "productCurrency": "INR",
                    "priceChange": "0.28",
                    "priceChangeSign": "+"
                }
            ]
        },
        {
            "district": "WANAPARTHY",
            "products": [
                {
                    "productName": "Petrol",
                    "productPrice": "90.29",
                    "productCurrency": "INR",
                    "priceChange": "0.26",
                    "priceChangeSign": "+"
                },
                {
                    "productName": "Diesel",
                    "productPrice": "83.84",
                    "productCurrency": "INR",
                    "priceChange": "0.27",
                    "priceChangeSign": "+"
                }
            ]
        },
        {
            "district": "NALGONDA",
            "products": [
                {
                    "productName": "Petrol",
                    "productPrice": "88.88",
                    "productCurrency": "INR",
                    "priceChange": "0.25",
                    "priceChangeSign": "+"
                },
                {
                    "productName": "Diesel",
                    "productPrice": "82.51",
                    "productCurrency": "INR",
                    "priceChange": "0.27",
                    "priceChangeSign": "+"
                }
            ]
        },
        {
            "district": "BHADRADRI KOTHAGUDEM",
            "products": [
                {
                    "productName": "Petrol",
                    "productPrice": "89.84",
                    "productCurrency": "INR",
                    "priceChange": "0.26",
                    "priceChangeSign": "+"
                },
                {
                    "productName": "Diesel",
                    "productPrice": "83.41",
                    "productCurrency": "INR",
                    "priceChange": "0.28",
                    "priceChangeSign": "+"
                }
            ]
        },
        {
            "district": "KHAMMAM",
            "products": [
                {
                    "productName": "Petrol",
                    "productPrice": "89.18",
                    "productCurrency": "INR",
                    "priceChange": "0.26",
                    "priceChangeSign": "+"
                },
                {
                    "productName": "Diesel",
                    "productPrice": "82.78",
                    "productCurrency": "INR",
                    "priceChange": "0.26",
                    "priceChangeSign": "+"
                }
            ]
        },
        {
            "district": "YADADRI BHUVANAGIRI",
            "products": [
                {
                    "productName": "Petrol",
                    "productPrice": "88.89",
                    "productCurrency": "INR",
                    "priceChange": "0.26",
                    "priceChangeSign": "+"
                },
                {
                    "productName": "Diesel",
                    "productPrice": "82.52",
                    "productCurrency": "INR",
                    "priceChange": "0.26",
                    "priceChangeSign": "+"
                }
            ]
        },
        {
            "district": "JAGITIAL",
            "products": [
                {
                    "productName": "Petrol",
                    "productPrice": "89.64",
                    "productCurrency": "INR",
                    "priceChange": "0.26",
                    "priceChangeSign": "+"
                },
                {
                    "productName": "Diesel",
                    "productPrice": "83.23",
                    "productCurrency": "INR",
                    "priceChange": "0.28",
                    "priceChangeSign": "+"
                }
            ]
        },
        {
            "district": "WARANGAL",
            "products": [
                {
                    "productName": "Petrol",
                    "productPrice": "88.49",
                    "productCurrency": "INR",
                    "priceChange": "0.25",
                    "priceChangeSign": "+"
                },
                {
                    "productName": "Diesel",
                    "productPrice": "82.15",
                    "productCurrency": "INR",
                    "priceChange": "0.27",
                    "priceChangeSign": "+"
                }
            ]
        },
        {
            "district": "MANCHERIAL",
            "products": [
                {
                    "productName": "Petrol",
                    "productPrice": "89.93",
                    "productCurrency": "INR",
                    "priceChange": "0.26",
                    "priceChangeSign": "+"
                },
                {
                    "productName": "Diesel",
                    "productPrice": "83.49",
                    "productCurrency": "INR",
                    "priceChange": "0.26",
                    "priceChangeSign": "+"
                }
            ]
        },
        {
            "district": "KAMAREDDY",
            "products": [
                {
                    "productName": "Petrol",
                    "productPrice": "90.21",
                    "productCurrency": "INR",
                    "priceChange": "0.25",
                    "priceChangeSign": "+"
                },
                {
                    "productName": "Diesel",
                    "productPrice": "83.76",
                    "productCurrency": "INR",
                    "priceChange": "0.27",
                    "priceChangeSign": "+"
                }
            ]
        },
        {
            "district": "NIRMAL",
            "products": [
                {
                    "productName": "Petrol",
                    "productPrice": "90.58",
                    "productCurrency": "INR",
                    "priceChange": "0.26",
                    "priceChangeSign": "+"
                },
                {
                    "productName": "Diesel",
                    "productPrice": "84.10",
                    "productCurrency": "INR",
                    "priceChange": "0.26",
                    "priceChangeSign": "+"
                }
            ]
        },
        {
            "district": "SURYAPET",
            "products": [
                {
                    "productName": "Petrol",
                    "productPrice": "88.59",
                    "productCurrency": "INR",
                    "priceChange": "0.26",
                    "priceChangeSign": "+"
                },
                {
                    "productName": "Diesel",
                    "productPrice": "82.23",
                    "productCurrency": "INR",
                    "priceChange": "0.27",
                    "priceChangeSign": "+"
                }
            ]
        },
        {
            "district": "ADILABAD",
            "products": [
                {
                    "productName": "Petrol",
                    "productPrice": "90.91",
                    "productCurrency": "INR",
                    "priceChange": "0.25",
                    "priceChangeSign": "+"
                },
                {
                    "productName": "Diesel",
                    "productPrice": "84.41",
                    "productCurrency": "INR",
                    "priceChange": "0.26",
                    "priceChangeSign": "+"
                }
            ]
        },
        {
            "district": "NIZAMABAD",
            "products": [
                {
                    "productName": "Petrol",
                    "productPrice": "90.42",
                    "productCurrency": "INR",
                    "priceChange": "0.25",
                    "priceChangeSign": "+"
                },
                {
                    "productName": "Diesel",
                    "productPrice": "83.96",
                    "productCurrency": "INR",
                    "priceChange": "0.26",
                    "priceChangeSign": "+"
                }
            ]
        },
        {
            "district": "KOMRAM BHEEM ASIFABA",
            "products": [
                {
                    "productName": "Petrol",
                    "productPrice": "90.63",
                    "productCurrency": "INR",
                    "priceChange": "0.25",
                    "priceChangeSign": "+"
                },
                {
                    "productName": "Diesel",
                    "productPrice": "84.15",
                    "productCurrency": "INR",
                    "priceChange": "0.27",
                    "priceChangeSign": "+"
                }
            ]
        },
        {
            "district": "WARANGAL RURAL",
            "products": [
                {
                    "productName": "Petrol",
                    "productPrice": "88.55",
                    "productCurrency": "INR",
                    "priceChange": "0.25",
                    "priceChangeSign": "+"
                },
                {
                    "productName": "Diesel",
                    "productPrice": "82.21",
                    "productCurrency": "INR",
                    "priceChange": "0.26",
                    "priceChangeSign": "+"
                }
            ]
        },
        {
            "district": "KARIM NAGAR",
            "products": [
                {
                    "productName": "Petrol",
                    "productPrice": "89.00",
                    "productCurrency": "INR",
                    "priceChange": "0.26",
                    "priceChangeSign": "+"
                },
                {
                    "productName": "Diesel",
                    "productPrice": "82.62",
                    "productCurrency": "INR",
                    "priceChange": "0.27",
                    "priceChangeSign": "+"
                }
            ]
        },
        {
            "district": "JANGAON",
            "products": [
                {
                    "productName": "Petrol",
                    "productPrice": "88.86",
                    "productCurrency": "INR",
                    "priceChange": "0.26",
                    "priceChangeSign": "+"
                },
                {
                    "productName": "Diesel",
                    "productPrice": "82.50",
                    "productCurrency": "INR",
                    "priceChange": "0.28",
                    "priceChangeSign": "+"
                }
            ]
        },
        {
            "district": "PEDDAPALLI",
            "products": [
                {
                    "productName": "Petrol",
                    "productPrice": "89.47",
                    "productCurrency": "INR",
                    "priceChange": "0.26",
                    "priceChangeSign": "+"
                },
                {
                    "productName": "Diesel",
                    "productPrice": "83.07",
                    "productCurrency": "INR",
                    "priceChange": "0.27",
                    "priceChangeSign": "+"
                }
            ]
        },
        {
            "district": "MAHABUBABAD",
            "products": [
                {
                    "productName": "Petrol",
                    "productPrice": "88.97",
                    "productCurrency": "INR",
                    "priceChange": "0.26",
                    "priceChangeSign": "+"
                },
                {
                    "productName": "Diesel",
                    "productPrice": "82.60",
                    "productCurrency": "INR",
                    "priceChange": "0.26",
                    "priceChangeSign": "+"
                }
            ]
        },
        {
            "district": "VIKARABAD",
            "products": [
                {
                    "productName": "Petrol",
                    "productPrice": "89.80",
                    "productCurrency": "INR",
                    "priceChange": "0.25",
                    "priceChangeSign": "+"
                },
                {
                    "productName": "Diesel",
                    "productPrice": "83.39",
                    "productCurrency": "INR",
                    "priceChange": "0.26",
                    "priceChangeSign": "+"
                }
            ]
        },
        {
            "district": "RAJANNA SIRCILLA",
            "products": [
                {
                    "productName": "Petrol",
                    "productPrice": "89.41",
                    "productCurrency": "INR",
                    "priceChange": "0.25",
                    "priceChangeSign": "+"
                },
                {
                    "productName": "Diesel",
                    "productPrice": "83.01",
                    "productCurrency": "INR",
                    "priceChange": "0.27",
                    "priceChangeSign": "+"
                }
            ]
        },
        {
            "district": "MULUGU",
            "products": [
                {
                    "productName": "Petrol",
                    "productPrice": "89.28",
                    "productCurrency": "INR",
                    "priceChange": "0.26",
                    "priceChangeSign": "+"
                },
                {
                    "productName": "Diesel",
                    "productPrice": "82.89",
                    "productCurrency": "INR",
                    "priceChange": "0.28",
                    "priceChangeSign": "+"
                }
            ]
        },
        {
            "district": "JAYASHANKAR BHUPALPA",
            "products": [
                {
                    "productName": "Petrol",
                    "productPrice": "89.03",
                    "productCurrency": "INR",
                    "priceChange": "0.26",
                    "priceChangeSign": "+"
                },
                {
                    "productName": "Diesel",
                    "productPrice": "82.65",
                    "productCurrency": "INR",
                    "priceChange": "0.27",
                    "priceChangeSign": "+"
                }
            ]
        }
    ]
}